{
    "maxlevel" : 9,
    "Level1" : {
        "filepath" : "level/level-1.png",
        "achievement" : "",
        "animal" : 20,
        "combo" : 20,
        "time" : 240,
        "respawntime" : 1.0
    },
    "Level2" : {
        "filepath" : "level/level-2.png",
        "achievement" : "",
        "animal" : 40,
        "combo" : 30,
        "time" : 230,
        "respawntime" : 0.9
        
    },
    "Level3" : {
        "filepath" : "level/level-3.png",
        "achievement" : "",
        "animal" : 60,
        "combo" : 45,
        "time" : 220,
        "respawntime" : 0.8
    },
    "Level4" : {
        "filepath" : "level/level-4.png",
        "achievement" : "",
        "animal" : 80,
        "combo" : 50,
        "time" : 210,
        "respawntime" : 0.7
    },
    "Level5" : {
        "filepath" : "level/level-5.png",
        "achievement" : "",
        "animal" : 100,
        "combo" : 55,
        "time" : 200,
        "respawntime" : 0.6
    },
    "Level6" : {
        "filepath" : "level/level-6.png",
        "achievement" : "",
        "animal" : 120,
        "combo" : 60,
        "time" : 190,
        "respawntime" : 0.5
    },
    "Level7" : {
        "filepath" : "level/level-7.png",
        "achievement" : "",
        "animal" : 130,
        "combo" : 65,
        "time" : 180,
        "respawntime" : 0.45
    },
    "Level8" : {
        "filepath" : "level/level-8.png",
        "achievement" : "",
        "animal" : 140,
        "combo" : 70,
        "time" : 175,
        "respawntime" : 0.4
    },
    "Level9" : {
        "filepath" : "level/level-9.png",
        "achievement" : "",
        "animal" : 150,
        "combo" : 75,
        "time" : 170,
        "respawntime" : 0.35
    }
    
}
